{
    "activations": {
        "heap_overlay_pool": {
            "buffer_c_name": "NULL",
            "buffer_c_name_addr": "NULL",
            "buffer_data_size": 0,
            "buffer_offsets": [
                {
                    "buffer_name": "serving_default_flatten_2_input0_output_array",
                    "lite_tag": null,
                    "offset": 0,
                    "size": 144,
                    "start_offset": 0
                },
                {
                    "buffer_name": "dense_1_output_array",
                    "lite_tag": null,
                    "offset": 144,
                    "size": 256,
                    "start_offset": 144
                },
                {
                    "buffer_name": "nl_1_nl_output_array",
                    "lite_tag": null,
                    "offset": 144,
                    "size": 256,
                    "start_offset": 144
                },
                {
                    "buffer_name": "dense_2_output_array",
                    "lite_tag": null,
                    "offset": 0,
                    "size": 16,
                    "start_offset": 0
                }
            ],
            "pool_id": 0,
            "pool_size": 400
        }
    },
    "activations_alignment": 4,
    "c_activations_count": 1,
    "c_arrays": [
        {
            "c_bits": 32,
            "c_id": 0,
            "c_mem_pool": "**default**",
            "c_size_in_byte": 144,
            "c_type": "float",
            "format": "float",
            "io_type": "input",
            "is_const": false,
            "mem_pool": "activations",
            "n_items": 36,
            "name": "serving_default_flatten_2_input0_output_array",
            "offset": 0,
            "padded": true,
            "raw_fmt": "(FLOAT, 32 bit, C Size: 32 bits)",
            "size": 36,
            "tensors": [
                {
                    "name": "serving_default_flatten_2_input0_output",
                    "shape": [
                        1,
                        6,
                        1,
                        6
                    ]
                },
                {
                    "name": "serving_default_flatten_2_input0_output0",
                    "shape": [
                        1,
                        1,
                        1,
                        36
                    ]
                }
            ]
        },
        {
            "c_bits": 32,
            "c_id": 1,
            "c_mem_pool": "**default**",
            "c_size_in_byte": 256,
            "c_type": "float",
            "format": "float",
            "is_const": false,
            "mem_pool": "activations",
            "n_items": 64,
            "name": "dense_1_output_array",
            "offset": 144,
            "padded": true,
            "raw_fmt": "(FLOAT, 32 bit, C Size: 32 bits)",
            "size": 64,
            "tensors": [
                {
                    "name": "dense_1_output",
                    "shape": [
                        1,
                        1,
                        1,
                        64
                    ]
                }
            ]
        },
        {
            "c_bits": 32,
            "c_id": 2,
            "c_mem_pool": "**default**",
            "c_size_in_byte": 256,
            "c_type": "float",
            "format": "float",
            "is_const": false,
            "mem_pool": "activations",
            "n_items": 64,
            "name": "nl_1_nl_output_array",
            "offset": 144,
            "padded": true,
            "raw_fmt": "(FLOAT, 32 bit, C Size: 32 bits)",
            "size": 64,
            "tensors": [
                {
                    "name": "nl_1_nl_output",
                    "shape": [
                        1,
                        1,
                        1,
                        64
                    ]
                }
            ]
        },
        {
            "c_bits": 32,
            "c_id": 3,
            "c_mem_pool": "**default**",
            "c_size_in_byte": 16,
            "c_type": "float",
            "format": "float",
            "io_type": "output",
            "is_const": false,
            "mem_pool": "activations",
            "n_items": 4,
            "name": "dense_2_output_array",
            "offset": 0,
            "padded": true,
            "raw_fmt": "(FLOAT, 32 bit, C Size: 32 bits)",
            "size": 4,
            "tensors": [
                {
                    "name": "dense_2_output",
                    "shape": [
                        1,
                        1,
                        1,
                        4
                    ]
                }
            ]
        },
        {
            "c_bits": 32,
            "c_id": 4,
            "c_mem_pool": "weights",
            "c_size_in_byte": 9216,
            "c_type": "const float",
            "format": "float",
            "is_const": true,
            "mem_pool": "weights",
            "n_items": 2304,
            "name": "dense_1_weights_array",
            "offset": 0,
            "padded": true,
            "raw_fmt": "(FLOAT, 32 bit, C Size: 32 bits)",
            "size": 2304,
            "tensors": [
                {
                    "name": "dense_1_weights",
                    "shape": [
                        36,
                        1,
                        1,
                        64
                    ]
                }
            ],
            "zeros": 0
        },
        {
            "c_bits": 32,
            "c_id": 5,
            "c_mem_pool": "weights",
            "c_size_in_byte": 256,
            "c_type": "const float",
            "format": "float",
            "is_const": true,
            "mem_pool": "weights",
            "n_items": 64,
            "name": "dense_1_bias_array",
            "offset": 9216,
            "padded": true,
            "raw_fmt": "(FLOAT, 32 bit, C Size: 32 bits)",
            "size": 64,
            "tensors": [
                {
                    "name": "dense_1_bias",
                    "shape": [
                        1,
                        1,
                        1,
                        64
                    ]
                }
            ],
            "zeros": 0
        },
        {
            "c_bits": 32,
            "c_id": 6,
            "c_mem_pool": "weights",
            "c_size_in_byte": 1024,
            "c_type": "const float",
            "format": "float",
            "is_const": true,
            "mem_pool": "weights",
            "n_items": 256,
            "name": "dense_2_weights_array",
            "offset": 9472,
            "padded": true,
            "raw_fmt": "(FLOAT, 32 bit, C Size: 32 bits)",
            "size": 256,
            "tensors": [
                {
                    "name": "dense_2_weights",
                    "shape": [
                        64,
                        1,
                        1,
                        4
                    ]
                }
            ],
            "zeros": 0
        },
        {
            "c_bits": 32,
            "c_id": 7,
            "c_mem_pool": "weights",
            "c_size_in_byte": 16,
            "c_type": "const float",
            "format": "float",
            "is_const": true,
            "mem_pool": "weights",
            "n_items": 4,
            "name": "dense_2_bias_array",
            "offset": 10496,
            "padded": true,
            "raw_fmt": "(FLOAT, 32 bit, C Size: 32 bits)",
            "size": 4,
            "tensors": [
                {
                    "name": "dense_2_bias",
                    "shape": [
                        1,
                        1,
                        1,
                        4
                    ]
                }
            ],
            "zeros": 0
        }
    ],
    "c_arrays_n": 8,
    "c_intq_n": 0,
    "c_layers": [
        {
            "c_forward": "forward_dense",
            "c_id": 0,
            "layer_type": "dense",
            "m_id": 1,
            "macc": 2368,
            "name": "dense_1",
            "next": "nl_1_nl",
            "op_by_type": {
                "smul_f32_f32": 2368
            },
            "rom": 9472,
            "tensors": {
                "inputs": [
                    "serving_default_flatten_2_input0_output0"
                ],
                "outputs": [
                    "dense_1_output"
                ],
                "scratchs": [],
                "weights": [
                    "dense_1_weights",
                    "dense_1_bias"
                ]
            },
            "weight_sparsity": [
                0.0,
                2368,
                0
            ]
        },
        {
            "c_forward": "forward_relu",
            "c_id": 1,
            "layer_type": "nl",
            "m_id": 1,
            "macc": 64,
            "name": "nl_1_nl",
            "next": "dense_2",
            "op_by_type": {
                "op_f32_f32": 64
            },
            "rom": 0,
            "tensors": {
                "inputs": [
                    "dense_1_output"
                ],
                "outputs": [
                    "nl_1_nl_output"
                ],
                "scratchs": [],
                "weights": []
            },
            "weight_sparsity": [
                0.0,
                0,
                0
            ]
        },
        {
            "c_forward": "forward_dense",
            "c_id": 2,
            "layer_type": "dense",
            "m_id": 2,
            "macc": 260,
            "name": "dense_2",
            "next": "dense_2",
            "op_by_type": {
                "smul_f32_f32": 260
            },
            "rom": 1040,
            "tensors": {
                "inputs": [
                    "nl_1_nl_output"
                ],
                "outputs": [
                    "dense_2_output"
                ],
                "scratchs": [],
                "weights": [
                    "dense_2_weights",
                    "dense_2_bias"
                ]
            },
            "weight_sparsity": [
                0.0,
                260,
                0
            ]
        }
    ],
    "c_name": "tf_matrix",
    "c_nodes_n": 3,
    "c_tensors_n": 9,
    "c_weights_count": 1,
    "c_weights_header": 0,
    "data_alignment": 4,
    "date_time": "Sun Sep 11 00:14:06 2022",
    "inputs": [
        "serving_default_flatten_2_input0_output"
    ],
    "macc": 2692,
    "memory_footprint": {
        "activations": 400,
        "io": [
            0,
            0
        ],
        "series": "generic",
        "weights": 10512
    },
    "memory_pools": [],
    "model_name": "tf_matrix",
    "outputs": [
        "dense_2_output"
    ],
    "params_alignment": 4,
    "stm_ai_version": {
        "extra": "RC5",
        "major": 7,
        "micro": 0,
        "minor": 2
    },
    "tool_api_version": {
        "major": 1,
        "micro": 0,
        "minor": 5
    },
    "tool_version": {
        "major": 1,
        "micro": 0,
        "minor": 6
    },
    "version": "1.2",
    "weights": {
        "weights_array": {
            "buffer_c_count": 1314,
            "buffer_c_data": [],
            "buffer_c_name": "s_tf_matrix_weights_array_u64",
            "buffer_c_name_addr": "s_tf_matrix_weights_array_u64",
            "buffer_c_type": "u64",
            "buffer_crc": 0,
            "buffer_data_size": 10512,
            "buffer_offsets": [
                {
                    "buffer_name": "dense_1_weights_array",
                    "lite_tag": null,
                    "offset": 0,
                    "size": 9216,
                    "start_offset": 0
                },
                {
                    "buffer_name": "dense_1_bias_array",
                    "lite_tag": null,
                    "offset": 9216,
                    "size": 256,
                    "start_offset": 9216
                },
                {
                    "buffer_name": "dense_2_weights_array",
                    "lite_tag": null,
                    "offset": 9472,
                    "size": 1024,
                    "start_offset": 9472
                },
                {
                    "buffer_name": "dense_2_bias_array",
                    "lite_tag": null,
                    "offset": 10496,
                    "size": 16,
                    "start_offset": 10496
                }
            ],
            "pool_id": 0,
            "pool_size": 10512
        }
    }
}